{
    "app-id": "url.calc.dates",
    "runtime": "org.gnome.Platform",
    "runtime-version": "3.32",
    "sdk": "org.gnome.Sdk",
    "command": "url.calc.dates",
    "finish-args": [
        "--share=network",
        "--share=ipc",
        "--socket=fallback-x11",
        "--socket=wayland",
        "--filesystem=xdg-run/dconf",
        "--filesystem=~/.config/dconf:ro",
        "--talk-name=ca.desrt.dconf",
        "--env=DCONF_USER_CONFIG_DIR=.config/dconf"
    ],
    "cleanup": [
        "/include",
        "/lib/pkgconfig",
        "/man",
        "/share/doc",
        "/share/gtk-doc",
        "/share/man",
        "/share/pkgconfig",
        "*.la",
        "*.a"
    ],
    "modules": [
        {
            "name": "calculadoradefechas",
            "builddir": true,
            "buildsystem": "meson",
            "sources": [
                {
                    "type": "git",
                    "url": "file:///home/absi5/Proyectos/CalculadoraDeFechas"
                }
            ]
        }
    ]
}
